{
  "formatVersion": 1,
  "database": {
    "version": 1,
    "identityHash": "863723a9b5ed3417ef1445cb3bfdb295",
    "entities": [
      {
        "tableName": "horarios",
        "createSql": "CREATE TABLE IF NOT EXISTS `${TABLE_NAME}` (`horarioId` INTEGER, `nombre` TEXT, `horaDeInicio` TEXT, `horaDeFinalizacion` TEXT, PRIMARY KEY(`horarioId`))",
        "fields": [
          {
            "fieldPath": "horarioId",
            "columnName": "horarioId",
            "affinity": "INTEGER",
            "notNull": false
          },
          {
            "fieldPath": "nombre",
            "columnName": "nombre",
            "affinity": "TEXT",
            "notNull": false
          },
          {
            "fieldPath": "horaDeInicio",
            "columnName": "horaDeInicio",
            "affinity": "TEXT",
            "notNull": false
          },
          {
            "fieldPath": "horaDeFinalizacion",
            "columnName": "horaDeFinalizacion",
            "affinity": "TEXT",
            "notNull": false
          }
        ],
        "primaryKey": {
          "columnNames": [
            "horarioId"
          ],
          "autoGenerate": false
        },
        "indices": [],
        "foreignKeys": []
      },
      {
        "tableName": "tareas",
        "createSql": "CREATE TABLE IF NOT EXISTS `${TABLE_NAME}` (`tareaId` INTEGER, `nombre` TEXT NOT NULL, `fechaDeInicio` TEXT, `fechaDeFinalizacion` TEXT, `duracion` INTEGER NOT NULL, `descripcion` TEXT, `isFinalizada` INTEGER NOT NULL, `horarioId` INTEGER, `color` INTEGER NOT NULL, PRIMARY KEY(`tareaId`), FOREIGN KEY(`horarioId`) REFERENCES `horarios`(`horarioId`) ON UPDATE CASCADE ON DELETE CASCADE )",
        "fields": [
          {
            "fieldPath": "tareaId",
            "columnName": "tareaId",
            "affinity": "INTEGER",
            "notNull": false
          },
          {
            "fieldPath": "nombre",
            "columnName": "nombre",
            "affinity": "TEXT",
            "notNull": true
          },
          {
            "fieldPath": "fechaDeInicio",
            "columnName": "fechaDeInicio",
            "affinity": "TEXT",
            "notNull": false
          },
          {
            "fieldPath": "fechaDeFinalizacion",
            "columnName": "fechaDeFinalizacion",
            "affinity": "TEXT",
            "notNull": false
          },
          {
            "fieldPath": "duracion",
            "columnName": "duracion",
            "affinity": "INTEGER",
            "notNull": true
          },
          {
            "fieldPath": "descripcion",
            "columnName": "descripcion",
            "affinity": "TEXT",
            "notNull": false
          },
          {
            "fieldPath": "isFinalizada",
            "columnName": "isFinalizada",
            "affinity": "INTEGER",
            "notNull": true
          },
          {
            "fieldPath": "horarioId",
            "columnName": "horarioId",
            "affinity": "INTEGER",
            "notNull": false
          },
          {
            "fieldPath": "color",
            "columnName": "color",
            "affinity": "INTEGER",
            "notNull": true
          }
        ],
        "primaryKey": {
          "columnNames": [
            "tareaId"
          ],
          "autoGenerate": false
        },
        "indices": [
          {
            "name": "index_tareas_horarioId",
            "unique": false,
            "columnNames": [
              "horarioId"
            ],
            "createSql": "CREATE  INDEX `index_tareas_horarioId` ON `${TABLE_NAME}` (`horarioId`)"
          },
          {
            "name": "index_tareas_color",
            "unique": false,
            "columnNames": [
              "color"
            ],
            "createSql": "CREATE  INDEX `index_tareas_color` ON `${TABLE_NAME}` (`color`)"
          }
        ],
        "foreignKeys": [
          {
            "table": "horarios",
            "onDelete": "CASCADE",
            "onUpdate": "CASCADE",
            "columns": [
              "horarioId"
            ],
            "referencedColumns": [
              "horarioId"
            ]
          }
        ]
      },
      {
        "tableName": "dias",
        "createSql": "CREATE TABLE IF NOT EXISTS `${TABLE_NAME}` (`dia_id` INTEGER, `horarioId` INTEGER, `nombreDiaId` INTEGER, PRIMARY KEY(`dia_id`), FOREIGN KEY(`horarioId`) REFERENCES `horarios`(`horarioId`) ON UPDATE CASCADE ON DELETE CASCADE , FOREIGN KEY(`nombreDiaId`) REFERENCES `nombre_dias`(`nombreDiaId`) ON UPDATE NO ACTION ON DELETE NO ACTION )",
        "fields": [
          {
            "fieldPath": "dia_id",
            "columnName": "dia_id",
            "affinity": "INTEGER",
            "notNull": false
          },
          {
            "fieldPath": "horarioId",
            "columnName": "horarioId",
            "affinity": "INTEGER",
            "notNull": false
          },
          {
            "fieldPath": "nombreDiaId",
            "columnName": "nombreDiaId",
            "affinity": "INTEGER",
            "notNull": false
          }
        ],
        "primaryKey": {
          "columnNames": [
            "dia_id"
          ],
          "autoGenerate": false
        },
        "indices": [
          {
            "name": "index_dias_horarioId",
            "unique": false,
            "columnNames": [
              "horarioId"
            ],
            "createSql": "CREATE  INDEX `index_dias_horarioId` ON `${TABLE_NAME}` (`horarioId`)"
          },
          {
            "name": "index_dias_nombreDiaId",
            "unique": false,
            "columnNames": [
              "nombreDiaId"
            ],
            "createSql": "CREATE  INDEX `index_dias_nombreDiaId` ON `${TABLE_NAME}` (`nombreDiaId`)"
          }
        ],
        "foreignKeys": [
          {
            "table": "horarios",
            "onDelete": "CASCADE",
            "onUpdate": "CASCADE",
            "columns": [
              "horarioId"
            ],
            "referencedColumns": [
              "horarioId"
            ]
          },
          {
            "table": "nombre_dias",
            "onDelete": "NO ACTION",
            "onUpdate": "NO ACTION",
            "columns": [
              "nombreDiaId"
            ],
            "referencedColumns": [
              "nombreDiaId"
            ]
          }
        ]
      },
      {
        "tableName": "nombre_dias",
        "createSql": "CREATE TABLE IF NOT EXISTS `${TABLE_NAME}` (`nombreDiaId` INTEGER, `nombre` TEXT, PRIMARY KEY(`nombreDiaId`))",
        "fields": [
          {
            "fieldPath": "nombreDiaId",
            "columnName": "nombreDiaId",
            "affinity": "INTEGER",
            "notNull": false
          },
          {
            "fieldPath": "nombre",
            "columnName": "nombre",
            "affinity": "TEXT",
            "notNull": false
          }
        ],
        "primaryKey": {
          "columnNames": [
            "nombreDiaId"
          ],
          "autoGenerate": false
        },
        "indices": [],
        "foreignKeys": []
      }
    ],
    "setupQueries": [
      "CREATE TABLE IF NOT EXISTS room_master_table (id INTEGER PRIMARY KEY,identity_hash TEXT)",
      "INSERT OR REPLACE INTO room_master_table (id,identity_hash) VALUES(42, \"863723a9b5ed3417ef1445cb3bfdb295\")"
    ]
  }
}